<svg width="18" height="18" viewBox="0 0 18 18" fill="none" xmlns="http://www.w3.org/2000/svg">
    <path fill-rule="evenodd" clip-rule="evenodd" d="M17.4687 17.4687C17.9926 16.9447 17.9926 16.0953 17.4687 15.5714L10.829 8.93172L17.4705 2.29026C17.9944 1.76633 17.9944 0.916879 17.4705 0.392954C16.9466 -0.130971 16.0971 -0.130972 15.5732 0.392954L8.93172 7.03441L2.29025 0.392944C1.76632 -0.130981 0.91687 -0.130981 0.392944 0.392944C-0.130981 0.91687 -0.130981 1.76632 0.392944 2.29025L7.03441 8.93172L0.394768 15.5714C-0.129158 16.0953 -0.129158 16.9447 0.394768 17.4687C0.918693 17.9926 1.76814 17.9926 2.29207 17.4687L8.93172 10.829L15.5714 17.4687C16.0953 17.9926 16.9447 17.9926 17.4687 17.4687Z" fill="#41456B"/>
</svg>
