<svg width="62" height="62" viewBox="0 0 62 62" fill="none" xmlns="http://www.w3.org/2000/svg">
<circle cx="31" cy="31" r="29.5" fill="white" stroke="#7380FF" stroke-width="3"/>
<path d="M31 10V31L20 43.5" stroke="#7380FF" stroke-width="3" stroke-linecap="round" stroke-linejoin="round"/>
</svg>
