<svg width="15" height="26" viewBox="0 0 15 26" fill="none" xmlns="http://www.w3.org/2000/svg">
    <path d="M13 24L2 13L13 2" stroke="#7380FF" stroke-width="3" stroke-linecap="round" stroke-linejoin="round"/>
</svg>
