<svg width="68" height="75" viewBox="0 0 68 75" fill="none" xmlns="http://www.w3.org/2000/svg">
<path d="M63 28.8398C69.6667 32.6888 69.6667 42.3113 63 46.1603L15.75 73.4401C9.08332 77.2891 0.750004 72.4778 0.750004 64.7798L0.750007 10.2202C0.750007 2.52218 9.08334 -2.28906 15.75 1.55995L63 28.8398Z" fill="#7380FF"/>
</svg>
